%YAML 1.1
%TAG !u! tag:unity3d.com,2011:
--- !u!114 &9054946789308586240
MonoBehaviour:
  m_ObjectHideFlags: 0
  m_CorrespondingSourceObject: {fileID: 0}
  m_PrefabInstance: {fileID: 0}
  m_PrefabAsset: {fileID: 0}
  m_GameObject: {fileID: 45937739572736554}
  m_Enabled: 1
  m_EditorHideFlags: 0
  m_Script: {fileID: 11500000, guid: e9936241648cf034a9fdfa03d78c8452, type: 3}
  m_Name: 
  m_EditorClassIdentifier: 
  howMuchTorque: 20
--- !u!1001 &2036611518443287550
PrefabInstance:
  m_ObjectHideFlags: 0
  serializedVersion: 2
  m_Modification:
    m_TransformParent: {fileID: 0}
    m_Modifications:
    - target: {fileID: 2080745782457369044, guid: 5b113abba18ca9546a6f71ff6c0c5865,
        type: 3}
      propertyPath: m_Name
      value: Ball Prefab Torque
      objectReference: {fileID: 0}
    - target: {fileID: 2080745782457368623, guid: 5b113abba18ca9546a6f71ff6c0c5865,
        type: 3}
      propertyPath: m_LocalPosition.x
      value: -4.52
      objectReference: {fileID: 0}
    - target: {fileID: 2080745782457368623, guid: 5b113abba18ca9546a6f71ff6c0c5865,
        type: 3}
      propertyPath: m_LocalPosition.y
      value: 10
      objectReference: {fileID: 0}
    - target: {fileID: 2080745782457368623, guid: 5b113abba18ca9546a6f71ff6c0c5865,
        type: 3}
      propertyPath: m_LocalPosition.z
      value: 10
      objectReference: {fileID: 0}
    - target: {fileID: 2080745782457368623, guid: 5b113abba18ca9546a6f71ff6c0c5865,
        type: 3}
      propertyPath: m_LocalRotation.x
      value: -0
      objectReference: {fileID: 0}
    - target: {fileID: 2080745782457368623, guid: 5b113abba18ca9546a6f71ff6c0c5865,
        type: 3}
      propertyPath: m_LocalRotation.y
      value: -0
      objectReference: {fileID: 0}
    - target: {fileID: 2080745782457368623, guid: 5b113abba18ca9546a6f71ff6c0c5865,
        type: 3}
      propertyPath: m_LocalRotation.z
      value: -0
      objectReference: {fileID: 0}
    - target: {fileID: 2080745782457368623, guid: 5b113abba18ca9546a6f71ff6c0c5865,
        type: 3}
      propertyPath: m_LocalRotation.w
      value: 1
      objectReference: {fileID: 0}
    - target: {fileID: 2080745782457368623, guid: 5b113abba18ca9546a6f71ff6c0c5865,
        type: 3}
      propertyPath: m_RootOrder
      value: 0
      objectReference: {fileID: 0}
    - target: {fileID: 2080745782457368623, guid: 5b113abba18ca9546a6f71ff6c0c5865,
        type: 3}
      propertyPath: m_LocalEulerAnglesHint.x
      value: 0
      objectReference: {fileID: 0}
    - target: {fileID: 2080745782457368623, guid: 5b113abba18ca9546a6f71ff6c0c5865,
        type: 3}
      propertyPath: m_LocalEulerAnglesHint.y
      value: 0
      objectReference: {fileID: 0}
    - target: {fileID: 2080745782457368623, guid: 5b113abba18ca9546a6f71ff6c0c5865,
        type: 3}
      propertyPath: m_LocalEulerAnglesHint.z
      value: 0
      objectReference: {fileID: 0}
    m_RemovedComponents: []
  m_SourcePrefab: {fileID: 100100000, guid: 5b113abba18ca9546a6f71ff6c0c5865, type: 3}
--- !u!1 &45937739572736554 stripped
GameObject:
  m_CorrespondingSourceObject: {fileID: 2080745782457369044, guid: 5b113abba18ca9546a6f71ff6c0c5865,
    type: 3}
  m_PrefabInstance: {fileID: 2036611518443287550}
  m_PrefabAsset: {fileID: 0}
